simulation/qsim/ArchivoRegistros.msim.vcd
$comment
	File created using the following command:
		vcd file ArchivoRegistros.msim.vcd -direction
$end
$date
	Sun Mar 26 23:55:52 2023
$end
$version
	ModelSim Version 10.5b
$end
$timescale
	1ps
$end

$scope module ArchivoRegistros_vlg_vec_tst $end
$var reg 3 ! Cmd [2:0] $end
$var reg 5 " DST [4:0] $end
$var reg 8 # Fx [7:0] $end
$var reg 1 $ Reloj $end
$var reg 1 % Reset $end
$var reg 5 & SelBus [4:0] $end
$var reg 5 ' SRC [4:0] $end
$var wire 1 ( Ax_t [7] $end
$var wire 1 ) Ax_t [6] $end
$var wire 1 * Ax_t [5] $end
$var wire 1 + Ax_t [4] $end
$var wire 1 , Ax_t [3] $end
$var wire 1 - Ax_t [2] $end
$var wire 1 . Ax_t [1] $end
$var wire 1 / Ax_t [0] $end
$var wire 1 0 Bus_t [7] $end
$var wire 1 1 Bus_t [6] $end
$var wire 1 2 Bus_t [5] $end
$var wire 1 3 Bus_t [4] $end
$var wire 1 4 Bus_t [3] $end
$var wire 1 5 Bus_t [2] $end
$var wire 1 6 Bus_t [1] $end
$var wire 1 7 Bus_t [0] $end
$var wire 1 8 Bx_t [7] $end
$var wire 1 9 Bx_t [6] $end
$var wire 1 : Bx_t [5] $end
$var wire 1 ; Bx_t [4] $end
$var wire 1 < Bx_t [3] $end
$var wire 1 = Bx_t [2] $end
$var wire 1 > Bx_t [1] $end
$var wire 1 ? Bx_t [0] $end
$var wire 1 @ r_t [7] $end
$var wire 1 A r_t [6] $end
$var wire 1 B r_t [5] $end
$var wire 1 C r_t [4] $end
$var wire 1 D r_t [3] $end
$var wire 1 E r_t [2] $end
$var wire 1 F r_t [1] $end
$var wire 1 G r_t [0] $end
$var wire 1 H x_t [7] $end
$var wire 1 I x_t [6] $end
$var wire 1 J x_t [5] $end
$var wire 1 K x_t [4] $end
$var wire 1 L x_t [3] $end
$var wire 1 M x_t [2] $end
$var wire 1 N x_t [1] $end
$var wire 1 O x_t [0] $end
$var wire 1 P y_t [7] $end
$var wire 1 Q y_t [6] $end
$var wire 1 R y_t [5] $end
$var wire 1 S y_t [4] $end
$var wire 1 T y_t [3] $end
$var wire 1 U y_t [2] $end
$var wire 1 V y_t [1] $end
$var wire 1 W y_t [0] $end

$scope module i1 $end
$var wire 1 X gnd $end
$var wire 1 Y vcc $end
$var wire 1 Z unknown $end
$var tri1 1 [ devclrn $end
$var tri1 1 \ devpor $end
$var tri1 1 ] devoe $end
$var wire 1 ^ SRC[0]~input_o $end
$var wire 1 _ SRC[1]~input_o $end
$var wire 1 ` SRC[2]~input_o $end
$var wire 1 a SRC[3]~input_o $end
$var wire 1 b SRC[4]~input_o $end
$var wire 1 c ~QUARTUS_CREATED_GND~I_combout $end
$var wire 1 d ~QUARTUS_CREATED_UNVM~~busy $end
$var wire 1 e ~QUARTUS_CREATED_ADC1~~eoc $end
$var wire 1 f ~QUARTUS_CREATED_ADC2~~eoc $end
$var wire 1 g Ax_t[0]~output_o $end
$var wire 1 h Ax_t[1]~output_o $end
$var wire 1 i Ax_t[2]~output_o $end
$var wire 1 j Ax_t[3]~output_o $end
$var wire 1 k Ax_t[4]~output_o $end
$var wire 1 l Ax_t[5]~output_o $end
$var wire 1 m Ax_t[6]~output_o $end
$var wire 1 n Ax_t[7]~output_o $end
$var wire 1 o Bx_t[0]~output_o $end
$var wire 1 p Bx_t[1]~output_o $end
$var wire 1 q Bx_t[2]~output_o $end
$var wire 1 r Bx_t[3]~output_o $end
$var wire 1 s Bx_t[4]~output_o $end
$var wire 1 t Bx_t[5]~output_o $end
$var wire 1 u Bx_t[6]~output_o $end
$var wire 1 v Bx_t[7]~output_o $end
$var wire 1 w x_t[0]~output_o $end
$var wire 1 x x_t[1]~output_o $end
$var wire 1 y x_t[2]~output_o $end
$var wire 1 z x_t[3]~output_o $end
$var wire 1 { x_t[4]~output_o $end
$var wire 1 | x_t[5]~output_o $end
$var wire 1 } x_t[6]~output_o $end
$var wire 1 ~ x_t[7]~output_o $end
$var wire 1 !! y_t[0]~output_o $end
$var wire 1 "! y_t[1]~output_o $end
$var wire 1 #! y_t[2]~output_o $end
$var wire 1 $! y_t[3]~output_o $end
$var wire 1 %! y_t[4]~output_o $end
$var wire 1 &! y_t[5]~output_o $end
$var wire 1 '! y_t[6]~output_o $end
$var wire 1 (! y_t[7]~output_o $end
$var wire 1 )! r_t[0]~output_o $end
$var wire 1 *! r_t[1]~output_o $end
$var wire 1 +! r_t[2]~output_o $end
$var wire 1 ,! r_t[3]~output_o $end
$var wire 1 -! r_t[4]~output_o $end
$var wire 1 .! r_t[5]~output_o $end
$var wire 1 /! r_t[6]~output_o $end
$var wire 1 0! r_t[7]~output_o $end
$var wire 1 1! Bus_t[0]~output_o $end
$var wire 1 2! Bus_t[1]~output_o $end
$var wire 1 3! Bus_t[2]~output_o $end
$var wire 1 4! Bus_t[3]~output_o $end
$var wire 1 5! Bus_t[4]~output_o $end
$var wire 1 6! Bus_t[5]~output_o $end
$var wire 1 7! Bus_t[6]~output_o $end
$var wire 1 8! Bus_t[7]~output_o $end
$var wire 1 9! Reloj~input_o $end
$var wire 1 :! Reloj~inputclkctrl_outclk $end
$var wire 1 ;! Cmd[2]~input_o $end
$var wire 1 <! DST[3]~input_o $end
$var wire 1 =! DST[1]~input_o $end
$var wire 1 >! DST[4]~input_o $end
$var wire 1 ?! DST[2]~input_o $end
$var wire 1 @! _~4_combout $end
$var wire 1 A! DST[0]~input_o $end
$var wire 1 B! _~5_combout $end
$var wire 1 C! Cmd[0]~input_o $end
$var wire 1 D! Cmd[1]~input_o $end
$var wire 1 E! Ax|_~3_combout $end
$var wire 1 F! Ax|_~1_combout $end
$var wire 1 G! Ax|R[0]~4_combout $end
$var wire 1 H! SelBus[2]~input_o $end
$var wire 1 I! SelBus[4]~input_o $end
$var wire 1 J! SelBus[0]~input_o $end
$var wire 1 K! SelBus[1]~input_o $end
$var wire 1 L! _~0_combout $end
$var wire 1 M! SelBus[3]~input_o $end
$var wire 1 N! _~6_combout $end
$var wire 1 O! Bx|R[0]~6_combout $end
$var wire 1 P! Bx|_~3_combout $end
$var wire 1 Q! Bx|R[0]~38_combout $end
$var wire 1 R! Bx|R[1]~39_combout $end
$var wire 1 S! Bx|_~0_combout $end
$var wire 1 T! Bx|_~1_combout $end
$var wire 1 U! Bx|R[0]~7_combout $end
$var wire 1 V! _~1_combout $end
$var wire 1 W! _~3_combout $end
$var wire 1 X! Fx[0]~input_o $end
$var wire 1 Y! _~2_combout $end
$var wire 1 Z! BUS[0]~1_combout $end
$var wire 1 [! alu_y|R[0]~feeder_combout $end
$var wire 1 \! Reset~input_o $end
$var wire 1 ]! Reset~inputclkctrl_outclk $end
$var wire 1 ^! _~7_combout $end
$var wire 1 _! _~9_combout $end
$var wire 1 `! _~8_combout $end
$var wire 1 a! op_1~0_combout $end
$var wire 1 b! _~10_combout $end
$var wire 1 c! BUS[0]~0_combout $end
$var wire 1 d! BUS[0]~2_combout $end
$var wire 1 e! Bx|_~2_combout $end
$var wire 1 f! Bx|op_2~1_cout $end
$var wire 1 g! Bx|op_2~3 $end
$var wire 1 h! Bx|op_2~5 $end
$var wire 1 i! Bx|op_2~7 $end
$var wire 1 j! Bx|op_2~9 $end
$var wire 1 k! Bx|op_2~11 $end
$var wire 1 l! Bx|op_2~12_combout $end
$var wire 1 m! Bx|R[6]~30_combout $end
$var wire 1 n! Bx|op_1~1 $end
$var wire 1 o! Bx|op_1~3 $end
$var wire 1 p! Bx|op_1~5 $end
$var wire 1 q! Bx|op_1~7 $end
$var wire 1 r! Bx|op_1~9 $end
$var wire 1 s! Bx|op_1~10_combout $end
$var wire 1 t! Bx|R[6]~31_combout $end
$var wire 1 u! Fx[6]~input_o $end
$var wire 1 v! BUS[6]~19_combout $end
$var wire 1 w! Fx[4]~input_o $end
$var wire 1 x! BUS[4]~13_combout $end
$var wire 1 y! Ax|R[0]~37_combout $end
$var wire 1 z! Ax|R[1]~38_combout $end
$var wire 1 {! Ax|R[1]~10_combout $end
$var wire 1 |! Fx[1]~input_o $end
$var wire 1 }! BUS[1]~4_combout $end
$var wire 1 ~! BUS[1]~5_combout $end
$var wire 1 !" op_1~1 $end
$var wire 1 "" op_1~2_combout $end
$var wire 1 #" _~11_combout $end
$var wire 1 $" BUS[1]~3_combout $end
$var wire 1 %" Ax|_~0_combout $end
$var wire 1 &" Ax|op_1~0_combout $end
$var wire 1 '" Ax|op_2~1_cout $end
$var wire 1 (" Ax|op_2~2_combout $end
$var wire 1 )" Ax|R[1]~8_combout $end
$var wire 1 *" Ax|R[1]~9_combout $end
$var wire 1 +" Ax|R[1]~11_combout $end
$var wire 1 ," Ax|R[2]~14_combout $end
$var wire 1 -" Fx[2]~input_o $end
$var wire 1 ." BUS[2]~7_combout $end
$var wire 1 /" BUS[2]~8_combout $end
$var wire 1 0" op_1~3 $end
$var wire 1 1" op_1~4_combout $end
$var wire 1 2" _~12_combout $end
$var wire 1 3" BUS[2]~6_combout $end
$var wire 1 4" Ax|op_1~1 $end
$var wire 1 5" Ax|op_1~2_combout $end
$var wire 1 6" Ax|op_2~3 $end
$var wire 1 7" Ax|op_2~4_combout $end
$var wire 1 8" Ax|R[2]~12_combout $end
$var wire 1 9" Ax|R[2]~13_combout $end
$var wire 1 :" Ax|R[2]~15_combout $end
$var wire 1 ;" Ax|R[3]~17_combout $end
$var wire 1 <" Fx[3]~input_o $end
$var wire 1 =" BUS[3]~10_combout $end
$var wire 1 >" alu_y|R[3]~feeder_combout $end
$var wire 1 ?" op_1~5 $end
$var wire 1 @" op_1~6_combout $end
$var wire 1 A" _~13_combout $end
$var wire 1 B" BUS[3]~9_combout $end
$var wire 1 C" BUS[3]~11_combout $end
$var wire 1 D" Ax|op_2~5 $end
$var wire 1 E" Ax|op_2~6_combout $end
$var wire 1 F" Ax|op_1~3 $end
$var wire 1 G" Ax|op_1~4_combout $end
$var wire 1 H" Ax|R[3]~16_combout $end
$var wire 1 I" Ax|R[3]~18_combout $end
$var wire 1 J" Ax|R[3]~19_combout $end
$var wire 1 K" Ax|R[4]~22_combout $end
$var wire 1 L" Ax|op_2~7 $end
$var wire 1 M" Ax|op_2~8_combout $end
$var wire 1 N" Ax|op_1~5 $end
$var wire 1 O" Ax|op_1~6_combout $end
$var wire 1 P" Ax|R[4]~20_combout $end
$var wire 1 Q" Ax|R[4]~21_combout $end
$var wire 1 R" Ax|R[4]~23_combout $end
$var wire 1 S" op_1~7 $end
$var wire 1 T" op_1~8_combout $end
$var wire 1 U" _~14_combout $end
$var wire 1 V" BUS[4]~12_combout $end
$var wire 1 W" BUS[4]~14_combout $end
$var wire 1 X" op_1~9 $end
$var wire 1 Y" op_1~11 $end
$var wire 1 Z" op_1~12_combout $end
$var wire 1 [" _~16_combout $end
$var wire 1 \" BUS[6]~18_combout $end
$var wire 1 ]" BUS[6]~20_combout $end
$var wire 1 ^" Bx|R[6]~29_combout $end
$var wire 1 _" Bx|R[6]~32_combout $end
$var wire 1 `" Bx|op_2~13 $end
$var wire 1 a" Bx|op_2~14_combout $end
$var wire 1 b" Bx|R[7]~33_combout $end
$var wire 1 c" Fx[7]~input_o $end
$var wire 1 d" BUS[7]~22_combout $end
$var wire 1 e" op_1~13 $end
$var wire 1 f" op_1~14_combout $end
$var wire 1 g" _~17_combout $end
$var wire 1 h" BUS[7]~21_combout $end
$var wire 1 i" BUS[7]~23_combout $end
$var wire 1 j" Bx|R[7]~34_combout $end
$var wire 1 k" Bx|R[7]~35_combout $end
$var wire 1 l" Bx|op_1~11 $end
$var wire 1 m" Bx|op_1~12_combout $end
$var wire 1 n" Bx|R[7]~36_combout $end
$var wire 1 o" Bx|R[7]~37_combout $end
$var wire 1 p" Bx|R[0]~8_combout $end
$var wire 1 q" Bx|R[0]~9_combout $end
$var wire 1 r" Bx|R[1]~11_combout $end
$var wire 1 s" Bx|op_1~0_combout $end
$var wire 1 t" Bx|op_2~2_combout $end
$var wire 1 u" Bx|R[1]~10_combout $end
$var wire 1 v" Bx|R[1]~12_combout $end
$var wire 1 w" Bx|R[1]~13_combout $end
$var wire 1 x" Bx|R[2]~16_combout $end
$var wire 1 y" Bx|op_2~4_combout $end
$var wire 1 z" Bx|op_1~2_combout $end
$var wire 1 {" Bx|R[2]~14_combout $end
$var wire 1 |" Bx|R[2]~15_combout $end
$var wire 1 }" Bx|R[2]~17_combout $end
$var wire 1 ~" Bx|R[3]~19_combout $end
$var wire 1 !# Bx|op_2~6_combout $end
$var wire 1 "# Bx|op_1~4_combout $end
$var wire 1 ## Bx|R[3]~18_combout $end
$var wire 1 $# Bx|R[3]~40_combout $end
$var wire 1 %# Bx|R[3]~20_combout $end
$var wire 1 &# Bx|R[4]~22_combout $end
$var wire 1 '# Bx|op_2~8_combout $end
$var wire 1 (# Bx|op_1~6_combout $end
$var wire 1 )# Bx|R[4]~21_combout $end
$var wire 1 *# Bx|R[4]~23_combout $end
$var wire 1 +# Bx|R[4]~24_combout $end
$var wire 1 ,# Bx|R[5]~26_combout $end
$var wire 1 -# Bx|op_2~10_combout $end
$var wire 1 .# Bx|op_1~8_combout $end
$var wire 1 /# Bx|R[5]~25_combout $end
$var wire 1 0# Bx|R[5]~27_combout $end
$var wire 1 1# Bx|R[5]~28_combout $end
$var wire 1 2# Fx[5]~input_o $end
$var wire 1 3# BUS[5]~16_combout $end
$var wire 1 4# op_1~10_combout $end
$var wire 1 5# _~15_combout $end
$var wire 1 6# BUS[5]~15_combout $end
$var wire 1 7# BUS[5]~17_combout $end
$var wire 1 8# Ax|op_1~7 $end
$var wire 1 9# Ax|op_1~8_combout $end
$var wire 1 :# Ax|op_2~9 $end
$var wire 1 ;# Ax|op_2~10_combout $end
$var wire 1 <# Ax|R[5]~24_combout $end
$var wire 1 =# Ax|R[5]~25_combout $end
$var wire 1 ># Ax|R[5]~26_combout $end
$var wire 1 ?# Ax|R[5]~27_combout $end
$var wire 1 @# Ax|op_2~11 $end
$var wire 1 A# Ax|op_2~12_combout $end
$var wire 1 B# Ax|R[6]~28_combout $end
$var wire 1 C# Ax|R[6]~29_combout $end
$var wire 1 D# Ax|op_1~9 $end
$var wire 1 E# Ax|op_1~10_combout $end
$var wire 1 F# Ax|R[6]~30_combout $end
$var wire 1 G# Ax|R[6]~31_combout $end
$var wire 1 H# Ax|R[7]~32_combout $end
$var wire 1 I# Ax|op_2~13 $end
$var wire 1 J# Ax|op_2~14_combout $end
$var wire 1 K# Ax|R[7]~33_combout $end
$var wire 1 L# Ax|R[7]~34_combout $end
$var wire 1 M# Ax|op_1~11 $end
$var wire 1 N# Ax|op_1~12_combout $end
$var wire 1 O# Ax|R[7]~35_combout $end
$var wire 1 P# Ax|R[7]~36_combout $end
$var wire 1 Q# Ax|_~2_combout $end
$var wire 1 R# Ax|R[0]~6_combout $end
$var wire 1 S# Ax|R[0]~5_combout $end
$var wire 1 T# Ax|R[0]~7_combout $end
$var wire 1 U# Bx|R [7] $end
$var wire 1 V# Bx|R [6] $end
$var wire 1 W# Bx|R [5] $end
$var wire 1 X# Bx|R [4] $end
$var wire 1 Y# Bx|R [3] $end
$var wire 1 Z# Bx|R [2] $end
$var wire 1 [# Bx|R [1] $end
$var wire 1 \# Bx|R [0] $end
$var wire 1 ]# Ax|R [7] $end
$var wire 1 ^# Ax|R [6] $end
$var wire 1 _# Ax|R [5] $end
$var wire 1 `# Ax|R [4] $end
$var wire 1 a# Ax|R [3] $end
$var wire 1 b# Ax|R [2] $end
$var wire 1 c# Ax|R [1] $end
$var wire 1 d# Ax|R [0] $end
$var wire 1 e# alu_y|R [7] $end
$var wire 1 f# alu_y|R [6] $end
$var wire 1 g# alu_y|R [5] $end
$var wire 1 h# alu_y|R [4] $end
$var wire 1 i# alu_y|R [3] $end
$var wire 1 j# alu_y|R [2] $end
$var wire 1 k# alu_y|R [1] $end
$var wire 1 l# alu_y|R [0] $end
$var wire 1 m# alu_x|R [7] $end
$var wire 1 n# alu_x|R [6] $end
$var wire 1 o# alu_x|R [5] $end
$var wire 1 p# alu_x|R [4] $end
$var wire 1 q# alu_x|R [3] $end
$var wire 1 r# alu_x|R [2] $end
$var wire 1 s# alu_x|R [1] $end
$var wire 1 t# alu_x|R [0] $end
$var wire 1 u# alu_r|R [7] $end
$var wire 1 v# alu_r|R [6] $end
$var wire 1 w# alu_r|R [5] $end
$var wire 1 x# alu_r|R [4] $end
$var wire 1 y# alu_r|R [3] $end
$var wire 1 z# alu_r|R [2] $end
$var wire 1 {# alu_r|R [1] $end
$var wire 1 |# alu_r|R [0] $end
$upscope $end
$upscope $end
$enddefinitions $end
#0
$dumpvars
b0 !
b0 "
b0 #
0$
1%
b0 &
b0 '
0/
0.
0-
0,
0+
0*
0)
0(
07
06
05
04
03
02
01
00
0?
0>
0=
0<
0;
0:
09
08
0G
0F
0E
0D
0C
0B
0A
0@
0O
0N
0M
0L
0K
0J
0I
0H
0W
0V
0U
0T
0S
0R
0Q
0P
0X
1Y
xZ
1[
1\
1]
0^
0_
0`
0a
0b
0c
zd
ze
zf
0g
0h
0i
0j
0k
0l
0m
0n
0o
0p
0q
0r
0s
0t
0u
0v
0w
0x
0y
0z
0{
0|
0}
0~
0!!
0"!
0#!
0$!
0%!
0&!
0'!
0(!
0)!
0*!
0+!
0,!
0-!
0.!
0/!
00!
01!
02!
03!
04!
05!
06!
07!
08!
09!
0:!
0;!
0<!
0=!
0>!
0?!
1@!
0A!
1B!
0C!
0D!
0E!
0F!
1G!
0H!
0I!
0J!
0K!
1L!
0M!
0N!
1O!
0P!
0Q!
0R!
0S!
0T!
0U!
0V!
0W!
0X!
0Y!
0Z!
0[!
1\!
1]!
0^!
0_!
0`!
0a!
0b!
0c!
0d!
0e!
0f!
1g!
0h!
1i!
0j!
1k!
1l!
0m!
0n!
1o!
0p!
1q!
0r!
0s!
0t!
0u!
0v!
0w!
0x!
0y!
0z!
0{!
0|!
0}!
0~!
0!"
0""
0#"
0$"
0%"
0&"
0'"
1("
0)"
0*"
0+"
0,"
0-"
0."
0/"
10"
01"
02"
03"
04"
05"
16"
17"
08"
09"
0:"
0;"
0<"
0="
0>"
0?"
0@"
0A"
0B"
0C"
0D"
1E"
1F"
0G"
0H"
0I"
0J"
0K"
1L"
1M"
0N"
0O"
0P"
0Q"
0R"
1S"
0T"
0U"
0V"
0W"
0X"
1Y"
0Z"
0["
0\"
0]"
0^"
0_"
0`"
1a"
0b"
0c"
0d"
0e"
0f"
0g"
0h"
0i"
0j"
0k"
1l"
0m"
0n"
0o"
0p"
0q"
0r"
0s"
1t"
0u"
0v"
0w"
0x"
1y"
0z"
0{"
0|"
0}"
0~"
1!#
0"#
0##
0$#
0%#
0&#
1'#
0(#
0)#
0*#
0+#
0,#
1-#
0.#
0/#
00#
01#
02#
03#
04#
05#
06#
07#
18#
09#
0:#
1;#
0<#
0=#
0>#
0?#
1@#
1A#
0B#
0C#
0D#
0E#
0F#
0G#
0H#
0I#
1J#
0K#
0L#
1M#
0N#
0O#
0P#
0Q#
0R#
0S#
0T#
0\#
0[#
0Z#
0Y#
0X#
0W#
0V#
0U#
0d#
0c#
0b#
0a#
0`#
0_#
0^#
0]#
0l#
0k#
0j#
0i#
0h#
0g#
0f#
0e#
0t#
0s#
0r#
0q#
0p#
0o#
0n#
0m#
0|#
0{#
0z#
0y#
0x#
0w#
0v#
0u#
$end
#10000
1$
19!
1:!
#20000
0%
b1 !
b100 &
b101 &
b100 "
b110 "
b100 #
b110 #
b111 #
0$
09!
1C!
1H!
1J!
1?!
1=!
1-"
1|!
1X!
0\!
0]!
0:!
0G!
1E!
0L!
1V!
1^!
0@!
1Y!
1`!
0B!
1."
1}!
1Z!
1G!
0E!
12"
1/"
1#"
1~!
1d!
1b!
11!
12!
13!
15
16
17
1[!
#30000
1$
19!
1:!
1z#
1r#
1{#
1s#
1|#
1t#
1w
1)!
1x
1*!
1y
1+!
11"
1""
1a!
1E
1M
1F
1N
1G
1O
#40000
b111 "
b11 #
0$
09!
1A!
0-"
0:!
0`!
1_!
0."
0/"
03!
05
#50000
1$
19!
1:!
1k#
1l#
1!!
1"!
00"
0""
1!"
0a!
1V
1W
1?"
01"
1""
1@"
02"
1A"
#60000
b1101 &
b1001 &
b1000 &
b11 "
b1 "
b1 #
b0 #
b0 "
0$
09!
1M!
0H!
0J!
0?!
0=!
0A!
0|!
0X!
0:!
0V!
0Y!
1W!
1L!
0^!
1@!
1`!
0_!
0}!
0Z!
0W!
13"
1$"
1c!
0`!
1B!
0~!
0d!
0b!
01!
02!
0G!
1E!
06
07
12"
1/"
1~!
1d!
1b!
0[!
11!
12!
13!
19"
1*"
15
16
17
1T#
1[!
1:"
1+"
#70000
1$
19!
1:!
1d#
1y#
1b#
1c#
1h
1i
1,!
1g
1'"
14"
1B"
1D"
07"
15"
06"
0("
1/
1D
1-
1.
1("
0F"
05"
0L"
0E"
17"
1C"
14!
1G"
1:#
0M"
1I"
14
1>"
0@#
0;#
1J"
1I#
0A#
0J#
#80000
b0 !
b0 &
0$
09!
0C!
0M!
0:!
1G!
0E!
0B"
1S#
0I"
09"
0*"
0T#
0C"
04!
04
1T#
0J"
0>"
#90000
1$
19!
1:!
#100000
0$
09!
0:!
#110000
1$
19!
1:!
#120000
0$
09!
0:!
#130000
1$
19!
1:!
#140000
0$
09!
0:!
#150000
1$
19!
1:!
#160000
0$
09!
0:!
#170000
1$
19!
1:!
#180000
0$
09!
0:!
#190000
1$
19!
1:!
#200000
0$
09!
0:!
#210000
1$
19!
1:!
#220000
0$
09!
0:!
#230000
1$
19!
1:!
#240000
0$
09!
0:!
#250000
1$
19!
1:!
#260000
0$
09!
0:!
#270000
1$
19!
1:!
#280000
0$
09!
0:!
#290000
1$
19!
1:!
#300000
0$
09!
0:!
#310000
1$
19!
1:!
#320000
0$
09!
0:!
#330000
1$
19!
1:!
#340000
0$
09!
0:!
#350000
1$
19!
1:!
#360000
0$
09!
0:!
#370000
1$
19!
1:!
#380000
0$
09!
0:!
#390000
1$
19!
1:!
#400000
0$
09!
0:!
#410000
1$
19!
1:!
#420000
0$
09!
0:!
#430000
1$
19!
1:!
#440000
0$
09!
0:!
#450000
1$
19!
1:!
#460000
0$
09!
0:!
#470000
1$
19!
1:!
#480000
0$
09!
0:!
#490000
1$
19!
1:!
#500000
0$
09!
0:!
#510000
1$
19!
1:!
#520000
0$
09!
0:!
#530000
1$
19!
1:!
#540000
0$
09!
0:!
#550000
1$
19!
1:!
#560000
0$
09!
0:!
#570000
1$
19!
1:!
#580000
0$
09!
0:!
#590000
1$
19!
1:!
#600000
0$
09!
0:!
#610000
1$
19!
1:!
#620000
0$
09!
0:!
#630000
1$
19!
1:!
#640000
0$
09!
0:!
#650000
1$
19!
1:!
#660000
0$
09!
0:!
#670000
1$
19!
1:!
#680000
0$
09!
0:!
#690000
1$
19!
1:!
#700000
0$
09!
0:!
#710000
1$
19!
1:!
#720000
0$
09!
0:!
#730000
1$
19!
1:!
#740000
0$
09!
0:!
#750000
1$
19!
1:!
#760000
0$
09!
0:!
#770000
1$
19!
1:!
#780000
0$
09!
0:!
#790000
1$
19!
1:!
#800000
0$
09!
0:!
#810000
1$
19!
1:!
#820000
0$
09!
0:!
#830000
1$
19!
1:!
#840000
0$
09!
0:!
#850000
1$
19!
1:!
#860000
0$
09!
0:!
#870000
1$
19!
1:!
#880000
0$
09!
0:!
#890000
1$
19!
1:!
#900000
0$
09!
0:!
#910000
1$
19!
1:!
#920000
0$
09!
0:!
#930000
1$
19!
1:!
#940000
0$
09!
0:!
#950000
1$
19!
1:!
#960000
0$
09!
0:!
#970000
1$
19!
1:!
#980000
0$
09!
0:!
#990000
1$
19!
1:!
